\BOOKMARK [1][-]{section.1}{Preface}{}
\BOOKMARK [1][-]{section.2}{Introduction - Limits}{}
\BOOKMARK [2][-]{subsection.2.1}{What is a limit?}{section.2}
\BOOKMARK [1][-]{section.3}{Derivatives}{}
\BOOKMARK [2][-]{subsection.3.1}{The formula for the derivative}{section.3}
\BOOKMARK [2][-]{subsection.3.2}{The exponential and logarithmic functions}{section.3}
\BOOKMARK [2][-]{subsection.3.3}{Polynomial derivatives}{section.3}
\BOOKMARK [2][-]{subsection.3.4}{Product and Quotient Rules}{section.3}
\BOOKMARK [2][-]{subsection.3.5}{Trigonometric Functions}{section.3}
\BOOKMARK [1][-]{section.4}{Application of Derivatives}{}
\BOOKMARK [1][-]{section.5}{The Concept of the Integral}{}
\BOOKMARK [1][-]{section.6}{Applications of Integrals}{}
\BOOKMARK [1][-]{section.7}{Sequences and Series}{}
\BOOKMARK [1][-]{section.8}{Maclaurin and Taylor polynomials/series}{}
\BOOKMARK [1][-]{section.9}{Revisiting limits}{}
\BOOKMARK [1][-]{section.10}{Computing Error}{}
